Compute inverse propensity scores — compute_propensity_scores • casimir
…
label_distribution <- dnb_label_distribution

compute_propensity_scores(label_distribution)
#> # A tibble: 7,772 × 2
#>    label_id  label_weight
#>    <chr>            <dbl>
#>  1 041321634         2.67
#>  2 041321650         1.99
#>  3 041608607         5.66
#>  4 042388120         1.91
#>  5 042718368         3.08
#>  6 043049168         2.87
#>  7 040118827         1.04
#>  8 040320553         2.51
#>  9 040340139         1.76
#> 10 041303059         5.51
#> # ℹ 7,762 more rows
…
